[
    {
        "name":"Home",
        "link":"/"
    },
    {
        "name":"Log in",
        "link":"/login"
    },
    {
        "name":"Registration",
        "link":"/registration"
    },
    {
        "name":"About us",
        "link":"/about-us"
    },
    {
        "name":"Products",
        "link":"/products"
    }   
]